…
``` r
price_output %>% filter(abs(.std.resid) > 2) %>% 
  select(prop_type_simp, number_of_reviews, review_scores_rating, room_type)
```

    ## # A tibble: 75 x 4
    ##    prop_type_simp number_of_reviews review_scores_rating room_type      
    ##    <chr>                      <dbl>                <dbl> <chr>          
    ##  1 Other                         92                   95 Entire home/apt
    ##  2 Other                         53                   96 Entire home/apt
    ##  3 Other                         52                   95 Entire home/apt
    ##  4 Other                         29                   98 Entire home/apt
    ##  5 Guest suite                   73                   87 Entire home/apt
    ##  6 House                         95                   98 Entire home/apt
    ##  7 House                         63                   99 Entire home/apt
    ##  8 Other                         13                   97 Private room   
    ##  9 House                         33                   99 Entire home/apt
    ## 10 House                        197                   96 Entire home/apt
    ## # … with 65 more rows
…
